lab01/test_mattia/post.vcd
$date
	Fri Nov 19 13:02:50 2021
$end
$version
	ModelSim Version 6.2g
$end
$timescale
	1ns
$end
$scope module tb $end
$scope module dut $end
$var wire 1 ! din [9] $end
$var wire 1 " din [8] $end
$var wire 1 # din [7] $end
$var wire 1 $ din [6] $end
$var wire 1 % din [5] $end
$var wire 1 & din [4] $end
$var wire 1 ' din [3] $end
$var wire 1 ( din [2] $end
$var wire 1 ) din [1] $end
$var wire 1 * din [0] $end
$var wire 1 + vin $end
$var wire 1 , rst_n $end
$var wire 1 - clk $end
$var wire 1 . dout [9] $end
$var wire 1 / dout [8] $end
$var wire 1 0 dout [7] $end
$var wire 1 1 dout [6] $end
$var wire 1 2 dout [5] $end
$var wire 1 3 dout [4] $end
$var wire 1 4 dout [3] $end
$var wire 1 5 dout [2] $end
$var wire 1 6 dout [1] $end
$var wire 1 7 dout [0] $end
$var wire 1 8 vout $end
$var wire 1 9 tmp [19] $end
$var wire 1 : tmp [18] $end
$var wire 1 ; tmp [17] $end
$var wire 1 < tmp [16] $end
$var wire 1 = tmp [15] $end
$var wire 1 > tmp [14] $end
$var wire 1 ? tmp [13] $end
$var wire 1 @ tmp [12] $end
$var wire 1 A tmp [11] $end
$var wire 1 B tmp [10] $end
$var wire 1 C tmp [9] $end
$var wire 1 D tmp [8] $end
$var wire 1 E tmp [7] $end
$var wire 1 F tmp [6] $end
$var wire 1 G tmp [5] $end
$var wire 1 H tmp [4] $end
$var wire 1 I tmp [3] $end
$var wire 1 J tmp [2] $end
$var wire 1 K tmp [1] $end
$var wire 1 L tmp [0] $end
$var wire 1 M tmp2 [19] $end
$var wire 1 N tmp2 [18] $end
$var wire 1 O tmp2 [17] $end
$var wire 1 P tmp2 [16] $end
$var wire 1 Q tmp2 [15] $end
$var wire 1 R tmp2 [14] $end
$var wire 1 S tmp2 [13] $end
$var wire 1 T tmp2 [12] $end
$var wire 1 U tmp2 [11] $end
$var wire 1 V tmp2 [10] $end
$var wire 1 W tmp2 [9] $end
$var wire 1 X tmp2 [8] $end
$var wire 1 Y tmp2 [7] $end
$var wire 1 Z tmp2 [6] $end
$var wire 1 [ tmp2 [5] $end
$var wire 1 \ tmp2 [4] $end
$var wire 1 ] tmp2 [3] $end
$var wire 1 ^ tmp2 [2] $end
$var wire 1 _ tmp2 [1] $end
$var wire 1 ` tmp2 [0] $end
$upscope $end
$upscope $end
$enddefinitions $end
#0
$dumpvars
0+
0,
0-
x8
xM
xN
xO
xP
xQ
xR
xS
xT
xU
xV
xW
xX
xY
xZ
x[
x\
x]
x^
x_
x`
x!
x"
x#
x$
x%
x&
x'
x(
x)
x*
x.
x/
x0
x1
x2
x3
x4
x5
x6
x7
x9
x:
x;
x<
x=
x>
x?
x@
xA
xB
xC
xD
xE
xF
xG
xH
xI
xJ
xK
xL
$end
#10
1-
08
#20
0-
#21
1,
18
#30
1-
1+
0*
0)
0(
0'
0&
0%
0$
0#
0"
0!
08
0L
0K
0J
0I
0H
0G
0F
0E
0D
0C
0B
0A
0@
0?
0>
0=
0<
0;
0:
09
0`
0_
0^
0]
0\
0[
0Z
0Y
0X
0W
0V
0U
0T
0S
0R
0Q
0P
0O
0N
0M
18
07
06
05
04
03
02
01
00
0/
0.
#40
0-
#50
1-
1*
1)
1(
1'
1&
1%
1$
08
1L
1E
1D
1C
1B
1A
1@
1?
1>
1=
1<
1;
1:
19
1`
1Y
1X
1W
1V
1U
1T
1S
1R
1Q
1P
1O
1N
1M
18
17
16
15
14
13
12
11
10
1/
1.
#60
0-
#70
1-
0'
0&
0%
1#
1"
1!
08
1I
1H
1G
0E
0D
0C
0B
0A
0@
0?
0>
0=
0<
0;
0:
09
0`
1Z
0X
0W
18
#80
0-
#90
1-
0*
0)
0(
1'
1&
0#
0!
08
0L
0H
1E
1C
1B
1A
1@
1?
1>
1=
1<
1;
1:
19
1`
1^
1]
0Y
1W
0U
18
06
0`
0]
1Y
1X
0W
0V
1U
07
16
#100
0-
#110
1-
1*
1)
1%
0$
1#
1!
08
1L
1J
0I
0G
1F
0E
0C
0B
0A
0@
0?
0>
0=
0<
0;
0:
09
1[
0Z
0T
0S
0R
0Q
0P
0O
0N
0M
18
05
04
03
02
01
00
0/
0.
1]
1\
1Z
0X
1W
0U
1T
06
15
1_
0^
0]
0\
0Z
1X
0W
1U
0T
16
05
#120
0-
#130
1-
1(
0&
0%
1$
0!
08
0J
1H
1G
0F
1C
1B
1A
1@
1?
1>
1=
1<
1;
1:
19
1^
1\
0[
0Y
1W
1V
1R
18
17
13
0X
0W
0V
1T
1S
0R
07
15
14
03
1`
0_
0^
1]
1[
1Y
1X
1W
0U
0T
06
05
0`
0]
1Z
0X
0W
1V
1U
17
16
#140
0-
#150
1-
0*
0)
0'
1&
1%
1!
08
0L
1J
1I
0H
0G
0C
0B
0A
0@
0?
0>
0=
0<
0;
0:
09
1`
1^
0\
0Z
1X
0V
0U
1T
0S
1Q
18
07
06
15
04
12
0[
0Y
1V
1U
0T
1S
0Q
17
16
05
14
02
1[
1W
1T
0S
1R
15
04
13
0`
1_
1]
1\
0[
0X
0W
0U
1S
06
14
1`
0_
0\
1[
1Z
1X
1W
0T
05
#160
0-
#170
1-
1*
1)
0&
0%
0!
08
1L
0J
1H
1G
1C
1B
1A
1@
1?
1>
1=
1<
1;
1:
19
0^
0]
1Y
0X
0W
1U
0R
1Q
18
16
03
12
1]
1\
1W
0V
1T
0S
0Q
07
15
04
02
1^
0]
0\
0[
0Y
1V
0U
1S
1R
1Q
17
06
14
13
12
1[
0Z
1Y
0V
0T
0S
07
05
04
0^
1X
1V
1S
0R
17
14
03
1_
1]
0[
1Z
0X
0V
1T
07
15
#180
0-
#190
1-
0)
0(
1'
1%
0#
0"
08
1K
1J
0I
0G
1E
1D
1[
0Z
0T
0S
1R
18
05
04
13
0[
0Y
1V
1U
1T
0Q
17
16
15
02
0`
1^
0]
0W
0R
1Q
1P
03
12
11
0^
1]
1[
1W
0V
1S
0P
07
14
01
1Y
0W
1V
1R
17
13
1`
0_
0[
1Z
0U
0S
0R
0Q
1P
06
04
03
02
11
0`
1_
0]
1[
0Y
1X
0V
1U
0T
07
16
05
#200
0-
#210
1-
1(
0%
1"
08
0J
1G
0D
1`
1^
1]
1Y
0X
1W
0U
18
06
1X
1U
1S
1R
1Q
0P
16
14
13
12
01
0^
1\
0Z
0Y
1V
0U
0S
1P
17
06
04
11
0`
0_
1^
1Y
1U
1T
1S
0Q
0P
16
15
14
02
01
0\
0X
0V
0U
0T
0R
1Q
1P
07
06
05
03
12
11
0[
1Z
0Y
1X
1V
1R
0Q
17
13
02
1`
0]
1\
0Z
1Y
1U
0S
16
04
1_
0^
0\
1Z
0Y
0X
0W
0V
1T
07
15
#220
0-
#230
1-
1)
0(
0'
1&
1%
1#
0"
08
0K
1J
1I
0H
0G
0E
1D
0`
1]
1Y
1V
0U
18
17
06
0]
1[
0Z
0Y
1W
1U
16
0[
1Z
0W
0V
0U
0R
1Q
07
06
03
12
1^
1[
1W
1V
1U
0T
1S
0P
17
16
05
14
01
0^
0[
0W
0U
1T
0S
1R
0Q
1O
06
15
04
13
02
10
1^
1]
1\
1[
0V
1P
0O
07
11
00
0[
1Y
1W
1U
0T
0R
1Q
16
05
03
12
0_
0]
0\
1[
0Z
0W
1V
1T
17
15
1_
0^
0[
1Z
1W
0U
06
#240
0-
#250
1-
0)
0%
0$
08
1K
1G
1F
1`
0Y
18
1]
1X
0V
1U
07
16
0`
1^
1[
1Y
0X
1V
0U
0T
17
06
05
0[
0Y
1X
0V
1T
1R
0Q
07
15
13
02
1\
1[
0Z
0X
1V
1S
0P
1O
17
14
01
10
1`
0_
0]
0[
1Y
1X
0W
1U
1Q
0O
16
12
00
0^
1]
1[
1Z
0X
1P
11
0Z
0Y
1X
0V
0U
0S
07
06
04
1^
0]
0\
1Y
1V
0T
17
05
1]
1\
1Z
0Y
0X
0V
1U
07
16
#260
0-
#270
1-
1)
1'
1$
0#
1"
08
0K
0I
0F
1E
0D
0]
0Z
1X
18
0`
1_
1]
0X
1W
1V
1T
1S
0R
17
15
14
03
1`
0]
1X
0V
0U
0S
1R
07
06
04
13
1Y
0W
1V
0R
0Q
0P
1O
17
03
02
01
10
0^
1Z
0V
1P
0O
07
11
00
0`
0_
1^
0\
0[
0Y
0X
1V
0T
1Q
0P
1O
17
05
12
01
10
1]
1\
1Y
1R
1P
0O
13
11
00
0Y
1X
0V
1S
07
14
1_
0\
1[
1Y
1V
17
0^
0]
1\
0[
1W
#280
0-
#290
1-
0*
0)
1(
0'
1#
1!
08
0L
1I
0E
0C
0B
0A
0@
0?
0>
0=
0<
0;
0:
09
1`
0_
0\
0Y
0X
18
0`
1^
1]
0Z
1Y
1X
0W
0V
1T
07
15
0^
0X
1W
1V
0S
17
04
1[
0Y
1X
0V
1U
0R
07
16
03
1^
0[
1Y
0X
0P
1O
01
10
1_
0^
0]
0Y
1X
0W
1V
0U
0T
1P
0O
17
06
05
11
00
1\
1[
1Y
0V
0Q
0P
1O
07
02
01
10
1Z
0Y
0X
1W
1V
1T
1S
1R
1Q
1P
0O
17
15
14
13
12
11
00
0_
1^
1]
0\
1X
0V
1U
07
16
1`
1V
0U
17
06
#300
0-
#310
1-
1)
1'
0&
1%
0#
0!
08
1K
0J
0I
1H
0G
1E
1C
1B
1A
1@
1?
1>
1=
1<
1;
1:
19
0`
1_
0^
0[
0Z
0W
0V
1U
18
07
16
1^
1\
1[
1Z
0X
1W
0T
05
1`
0_
0[
0Z
1Y
0U
0S
0R
0Q
0P
1O
06
04
03
02
01
10
1[
1Z
0W
1V
1U
1T
1S
17
16
15
14
0]
0[
0Z
1X
1R
1P
0O
13
11
00
0^
0\
1[
1Z
0Y
0X
1W
0V
0U
0R
0P
1O
07
06
03
01
10
1]
0Z
1X
0W
0T
0S
05
04
1Z
1Y
0X
1V
1T
1S
1R
1Q
1P
0O
17
15
14
13
12
11
00
1_
1^
0]
0Z
1W
0V
1U
0T
07
16
05
0`
1]
1\
1X
0U
1T
06
15
#320
0-
#330
1-
1*
0%
1!
08
1L
0K
1G
0C
0B
0A
0@
0?
0>
0=
0<
0;
0:
09
0^
0\
0W
18
1`
1^
0]
0X
1W
1V
1U
17
16
0`
0_
0^
1\
1Z
0U
0T
06
05
0Z
0Y
1X
0V
1U
1T
0R
07
16
15
03
0\
1Z
1Y
1V
0U
0Q
0P
1O
17
06
02
01
10
1_
0[
0Z
0X
0W
0V
1R
1Q
1P
0O
07
13
12
11
00
1]
1[
1Z
1W
1U
0R
16
03
0Z
0Y
0W
1V
0U
0S
1R
17
06
04
13
1`
0_
1^
0]
0[
0V
1U
0T
1S
07
16
05
14
0`
1_
1]
1[
1Z
1Y
1W
1V
1T
0S
17
15
04
#340
0-
#350
1-
0(
0'
1&
0$
0!
08
1J
1I
0H
1F
1C
1B
1A
1@
1?
1>
1=
1<
1;
1:
19
1`
0_
0^
0[
0W
0V
0U
0T
1S
18
07
06
05
14
0`
1^
0]
0Z
0Y
1V
1T
0S
17
15
04
1_
0^
1]
1Z
1Y
1X
0T
1S
05
14
0Y
0X
1W
0V
0S
0R
0Q
0P
1O
07
04
03
02
01
10
0]
1\
0Z
1X
0W
1T
1R
1Q
1P
0O
15
13
12
11
00
0_
1^
1]
1Z
1W
0T
0R
05
03
0]
1Y
0W
1T
1S
1R
15
14
13
1[
0X
0T
0S
05
04
1_
0^
0\
0Z
0Y
1V
1U
1S
0R
17
16
14
03
1`
1^
1\
1X
0V
1T
07
15
#360
0-
#370
1-
0*
0)
0&
1%
1!
08
0L
0J
0I
0C
0B
0A
0@
0?
0>
0=
0<
0;
0:
09
0`
0_
0\
1Z
1W
1V
0U
18
17
06
1_
1\
1Y
0X
0W
0V
0T
0S
1R
07
05
04
13
0^
0\
0Y
1X
1V
1T
1S
0R
17
15
14
03
0Z
0X
1W
0V
1U
0T
07
16
05
1]
0[
1Y
0W
1V
0U
1T
1R
0Q
17
06
15
13
02
0_
1\
1[
0S
0R
0P
1O
04
03
01
10
1^
0]
0\
1Z
1W
1U
1S
1P
0O
16
14
11
00
0Z
0Y
0V
0U
1R
07
06
13
1`
1_
1\
1Y
1X
0W
1V
1U
0T
0S
0R
1Q
17
16
05
04
03
12
0`
1]
0\
0[
1Z
0Y
1W
0V
0U
07
06
#380
0-
#390
1-
1)
1(
1&
0%
1$
0"
0!
08
1K
1I
0F
1D
1C
1B
1A
1@
1?
1>
1=
1<
1;
1:
19
0_
1[
0Z
1Y
0X
0W
1V
18
17
0^
0]
1\
1Z
0Y
1W
1U
1T
1S
1R
0Q
16
15
14
13
02
1_
0\
0[
0Z
1X
0V
0U
0T
0S
0R
1Q
07
06
05
04
03
12
1Z
1Y
0X
1V
1T
1S
1R
0Q
17
15
14
13
02
1]
1\
1[
0Z
0Y
1X
0W
0T
1Q
05
12
1`
0_
1^
0\
1W
1U
0R
0P
16
03
01
0]
1Z
0S
1P
04
11
0[
0Z
1Y
0V
1R
0Q
07
13
02
0^
1\
0X
0W
1V
0U
1T
1S
0R
17
06
15
14
03
0`
0\
0Y
1X
0V
0T
0S
1R
07
05
04
13
#400
0-
#410
1-
1*
0(
0&
1"
1!
08
1L
0K
1J
1H
0D
0C
0B
0A
0@
0?
0>
0=
0<
0;
0:
09
1^
1]
1\
0X
18
1_
0^
0]
1Y
1W
0_
1^
1]
0\
1X
1V
17
1Z
0X
0W
0V
1S
07
14
0^
1\
1[
1W
1U
0S
0R
1Q
0P
16
04
03
12
01
1_
1^
0]
0[
0Z
0Y
0W
0U
1T
1R
1P
06
15
13
11
0^
0\
1[
1X
1W
1V
0T
1S
0R
0P
17
05
14
03
01
1Y
1U
1T
0S
1R
16
15
04
13
1`
0_
1]
1\
1Z
0X
0W
0V
1S
07
14
0`
1_
0]
0[
0Z
1X
0U
06
#420
0-
#430
1-
0)
1'
1%
08
1K
0I
0G
0_
1^
1]
0\
1[
1Z
18
1_
0^
1\
0[
0Z
0X
1V
17
0_
1Z
0Y
1W
0V
1U
0T
07
16
05
1[
1X
0W
1T
0R
15
03
0]
0Z
1Y
0S
1P
04
11
1`
1_
1]
0[
0Y
1W
0T
1S
1R
1O
1N
1M
05
14
13
10
1/
1.
0\
1Z
0X
0U
0P
0O
0N
0M
06
01
00
0/
0.
1[
1Y
1X
0R
03
0_
1^
0Z
0Y
0X
0W
1V
1T
0S
17
15
04
0`
0[
1Y
1X
1W
0V
1U
07
16
#440
0-
#450
1-
0*
1(
0'
1&
0%
0$
1#
08
0L
0K
1I
0H
1G
1F
0E
1_
1[
1Z
18
0_
0^
0Y
0X
1V
0U
17
06
1`
1_
0]
0[
0V
1U
0T
1S
07
16
05
14
0Z
1Y
1X
0W
1V
1T
0S
1R
17
15
04
13
1^
1]
0X
0U
1S
0R
1P
1O
1N
1M
06
14
03
11
10
1/
1.
0^
1\
1[
1Z
1W
0V
1U
0S
0Q
0O
0N
0M
07
16
04
02
00
0/
0.
1^
0]
0[
0Z
0Y
0T
0P
05
01
1Z
1Y
0W
0U
1T
1S
06
15
14
0`
1]
0\
1W
1V
1U
17
16
1`
0_
0^
1\
0Z
1X
0W
#460
0-
#470
1-
1*
0(
0"
08
1L
1K
1D
1_
1^
0\
1Z
0X
18
0`
0_
0^
0]
0Z
1X
1W
0U
0T
0S
1R
06
05
04
13
1_
1^
1]
1[
0X
0V
1T
1S
0R
07
15
14
03
0[
1Z
1V
1U
0T
1R
1Q
1P
1O
1N
1M
17
16
05
13
12
11
10
1/
1.
1\
1[
1X
0W
0U
0P
0O
0N
0M
06
01
00
0/
0.
1`
0_
0\
0[
0Y
0X
1W
0V
1U
1T
0S
0Q
1P
1O
1N
1M
07
16
15
04
02
11
10
1/
1.
0]
1\
1Y
1X
0U
0T
0R
0P
0O
0N
0M
06
05
03
01
00
0/
0.
1[
0Y
0W
1S
1R
1Q
1P
1O
1N
1M
14
13
12
11
10
1/
1.
1_
0\
0[
0Z
1Y
1W
1V
1U
1T
0S
17
16
15
04
0_
1]
1\
1Z
0Y
#480
0-
#490
1-
0&
1%
1$
1"
08
1H
0G
0F
0D
0`
0]
0\
1[
1Y
0X
0W
0V
0U
0T
1S
18
07
06
05
14
1_
1]
0Z
1X
1V
1T
0S
17
15
04
1`
0_
0^
0]
0[
1Z
0Y
0V
1S
07
14
1Y
1U
0T
0R
0Q
0P
0O
0N
0M
16
05
03
02
01
00
0/
0.
1^
1]
1\
0X
1T
0S
1P
1O
1N
1M
15
04
11
10
1/
1.
1_
0\
1[
0Z
1W
1V
0T
0P
0O
0N
0M
17
05
01
00
0/
0.
0^
0[
1Z
0Y
0W
0V
1T
1S
1R
1P
1O
1N
1M
07
15
14
13
11
10
1/
1.
0Z
1X
1V
17
0`
0_
1^
1\
1Z
1Y
0X
1W
0V
07
1`
0^
0]
0\
1[
0Z
0W
0U
0T
0S
0R
1Q
06
05
04
03
12
#500
0-
#510
1-
1&
0%
0$
0#
0"
08
0H
1G
1F
1E
1D
1_
1^
0[
0Y
1X
1W
1V
1U
1T
1S
1R
0Q
18
17
16
15
14
13
02
0`
0_
0^
1[
1Z
1Y
0W
0T
0S
0R
1Q
05
04
03
12
1^
1]
0X
1W
0U
1T
1S
1R
0Q
06
15
14
13
02
0[
0Z
0W
0V
1U
0R
07
16
03
0]
1\
0Y
1W
0U
0T
1R
1Q
06
05
13
12
1`
1_
0^
0\
0W
1U
0S
0R
0Q
16
04
03
02
1]
1Z
1Y
1V
1T
17
15
1[
0Z
0Y
1W
0V
0U
0T
1S
07
06
05
14
0`
0]
1\
0[
1Z
1X
1V
1U
17
16
1[
1Y
0U
06
#520
0-
#530
1-
0*
0&
0!
08
0L
0K
0J
0I
0G
0F
0E
0D
1`
0_
0[
0Z
0Y
0X
0V
1U
18
07
16
1^
1[
1Y
1X
0W
1V
1T
0S
17
15
04
0`
1]
0\
0[
0Y
1W
0U
1S
06
14
1Z
1Y
0W
1U
0S
1R
16
04
13
0^
1[
0Y
1W
0U
0T
1Q
0P
06
05
12
01
1_
0[
0Z
1Y
0W
1S
14
1^
0Y
1U
1T
16
15
1[
1Y
0X
0S
04
1\
0[
1X
1W
0V
0T
07
05
1`
1Z
0Y
0X
1V
0U
1T
17
06
15
#540
0-
#550
1-
1*
1&
1!
08
1L
1K
1J
1I
1G
1F
1E
1D
0^
0Z
1Y
0W
18
0`
0_
0]
0\
1Z
0Y
1W
0V
0T
1S
07
05
14
1_
0Z
1Y
1T
0S
15
04
1[
0Y
0W
1S
0R
14
03
1]
1Z
1Y
1V
0T
0S
1R
17
05
04
13
1`
0]
0[
0Z
0Y
1X
1W
1S
14
1^
1]
1\
1Z
0W
0V
1U
1T
0S
0Q
07
16
15
04
02
1W
0U
0T
0R
1Q
06
05
03
12
0\
1[
1Y
0X
1U
1T
16
15
0_
0]
1\
0[
0Y
1X
1V
0T
17
05
#560
0-
#570
1-
0&
1%
1$
1#
1"
08
1H
0G
0F
0E
0D
0`
0^
1]
0\
0W
0V
0U
1T
18
07
06
15
1_
1^
1Y
0X
1U
0T
16
05
1`
0_
0]
1W
1V
0U
1T
17
06
15
0Z
1X
0V
1U
07
16
0^
1]
0Y
0U
1S
06
14
0`
1[
1Y
0W
1V
0T
1R
1P
0O
17
05
13
11
00
1Z
0Y
1U
1T
0S
0R
0P
1O
16
15
04
03
01
10
1W
0V
0U
0T
1S
1R
0Q
07
06
05
14
13
02
1`
1^
0]
0[
0X
1U
0S
16
04
0`
1_
1]
1\
1[
1Y
1X
0W
1V
0U
1T
17
06
15
#580
0-
#590
1-
1&
0%
0$
0"
08
0H
1G
1F
1D
0_
0^
0\
0[
0X
18
1`
1^
0Y
1U
16
1_
1\
1W
0V
07
1[
0Z
1Y
1X
1V
17
0^
0[
0Y
0X
0V
0U
1Q
1P
0O
07
06
12
11
00
0\
1Y
0W
1V
1U
0P
1O
17
16
01
10
1Z
1W
1P
0O
11
00
1[
0Z
0W
0R
0Q
0P
1O
03
02
01
10
0`
1^
0[
1Z
1X
0U
1S
06
14
1[
0Y
0X
1W
0V
1U
0T
07
16
05
#600
0-
#610
1-
0*
1(
1"
08
0L
0K
0D
1`
0_
0^
0]
0[
0Z
1Y
1X
18
1_
1^
1\
1[
1Z
0Y
0X
0`
0_
0^
1]
0\
0[
0W
1[
1Y
1X
1W
1V
0U
0S
17
06
04
0Z
1U
1T
1S
1Q
16
15
14
12
1\
0T
0S
1R
0Q
1P
0O
05
04
13
02
11
00
1^
0\
1Z
0Y
0X
1T
0P
1O
15
01
10
0[
0Z
1Y
0W
0V
0U
0T
1S
0R
07
06
05
14
03
1\
1[
1Z
1U
0S
16
04
1`
0^
0\
0Z
0Y
1X
0U
1T
06
15
#620
0-
#630
1-
1*
0(
1'
0&
1%
1$
0#
08
1L
1K
0I
1H
0G
0F
1E
1_
0]
0[
18
0`
1^
1\
1Z
1Y
1W
1V
1U
0T
17
16
05
1`
0_
1]
1[
0X
0W
1T
15
1W
0U
0T
1R
06
05
13
0Z
0Y
1X
0W
0V
1U
1P
0O
07
16
11
00
0`
1_
0^
0]
0\
0[
1Z
1Y
0U
1T
1Q
0P
1O
06
15
12
01
10
1^
1]
0Z
0Y
1W
0T
1P
0O
05
11
00
0W
1V
1U
1T
1S
17
16
15
14
1\
0X
1W
0T
0S
0R
0Q
0P
1O
05
04
03
02
01
10
0_
0]
1[
1X
0U
06
#640
0-
#650
1-
1)
0'
0%
08
0K
1I
1G
1`
0^
1]
0\
0[
18
0`
1_
1^
1\
0X
1U
16
0\
1X
0W
1T
1S
1R
1Q
1P
0O
15
14
13
12
11
00
1W
0V
0U
0T
0S
07
06
05
04
0^
0]
1Z
1Y
0W
1T
0P
1O
15
01
10
1`
0_
1^
1]
1\
1[
0Z
0Y
1U
0T
0Q
1P
0O
16
05
02
11
00
1Z
1Y
0X
1W
1V
0U
0P
1O
17
06
01
10
0W
1U
1T
0R
16
15
03
0`
1_
0]
0[
1X
1W
0T
05
1`
0_
0^
1]
0\
1[
0Z
0Y
0W
0V
0U
1T
07
06
15
#660
0-
#670
1-
0*
1(
1&
0"
0!
08
0L
1K
0J
0H
1D
1C
1B
1A
1@
1?
1>
1=
1<
1;
1:
19
0`
1^
0X
1W
18
1\
1Z
1Y
0W
1U
0T
16
05
0\
0[
0Z
0U
1S
06
14
1[
1Z
0Y
1W
1V
1U
1T
0S
1R
17
16
15
04
13
0^
1\
0Z
1Y
1X
0T
1P
0O
05
11
00
0\
1T
1S
0R
1Q
0P
1O
15
14
03
12
01
10
1Z
0U
0T
0S
0Q
06
05
04
02
0[
0Y
0X
0W
0V
1U
1S
07
16
14
1`
1_
1^
0]
1\
1[
1W
0`
1]
0\
#680
0-
#690
1-
0)
0(
0&
1%
0$
1"
1!
08
0K
0I
1F
0D
0C
0B
0A
0@
0?
0>
0=
0<
0;
0:
09
1\
0[
0Z
1X
0W
18
0\
1Z
1Y
1V
0U
1T
17
06
15
1`
0^
1[
0Z
0X
1U
0S
16
04
0[
1Z
1W
1R
1Q
1P
0O
13
12
11
00
0Z
0W
0P
1O
01
10
1\
0Y
1W
0V
0U
1P
0O
07
06
11
00
1^
1[
1Y
1X
1V
1U
0Q
0P
1O
17
16
02
01
10
0[
1Z
0Y
0X
0V
07
0_
0\
0W
1V
17
0`
1_
1\
1[
1Y
1X
0U
06
#700
0-
#710
1-
1*
1)
1&
0%
0!
08
1L
1J
1I
1C
1B
1A
1@
1?
1>
1=
1<
1;
1:
19
0\
0[
1W
18
1`
0_
0]
0Y
0X
0V
1U
0T
07
16
05
0`
0^
1]
1[
1X
0U
1S
06
14
0W
1V
1U
1T
0S
0R
1Q
17
16
15
04
03
12
0Z
1Y
0U
0T
1S
1R
1P
0O
06
05
14
13
11
00
1`
0[
0Y
1W
0V
1T
0R
0P
1O
07
15
03
01
10
1^
0]
1Y
1U
0S
16
04
1Z
0X
1V
0U
17
06
0`
1_
1]
0W
0V
1U
0T
07
16
05
1`
0_
0]
1\
0Y
1X
1W
1V
17
#720
0-
#730
1-
1(
1'
0&
1$
1!
08
0J
0I
1H
0F
0C
0B
0A
0@
0?
0>
0=
0<
0;
0:
09
0`
1_
0\
1[
0W
18
1`
1]
1Y
0X
1W
0V
1T
07
15
1\
0[
0Y
1X
0U
0T
06
05
0W
1U
1T
1R
0Q
16
15
13
02
0^
0]
0\
0Z
1W
1V
0U
0T
1S
1Q
17
06
05
14
12
0`
1]
1[
1Z
1Y
0X
0W
0S
04
0]
0Z
0Y
0V
1T
1S
0R
07
15
14
03
0[
1Y
1W
0S
1R
04
13
0_
1Z
0Y
0T
1S
05
14
1`
1_
1^
1]
1\
1V
1T
0S
17
15
04
#740
0-
#750
1-
0*
1%
0!
08
0L
1K
0G
1C
1B
1A
1@
1?
1>
1=
1<
1;
1:
19
0`
0\
0W
0V
1U
18
07
16
1\
0Z
1Y
1X
1W
0T
05
0\
1[
0X
0W
1V
1T
17
15
0[
0Y
1X
1S
14
0^
1Y
0U
0T
06
05
0_
1[
1Z
0Y
1W
0S
04
1^
0[
1Y
0W
1U
1T
0Q
1P
16
15
02
11
0Z
0Y
1W
0U
1S
0R
06
14
03
1`
0]
1\
1[
1Y
0W
1U
0S
16
04
0`
1_
0^
1Z
1W
0U
0T
1S
06
05
14
#760
0-
#770
1-
0)
0'
1&
0%
1#
1!
08
0K
1J
1I
0H
1G
0E
0C
0B
0A
0@
0?
0>
0=
0<
0;
0:
09
0\
0Z
0Y
0X
18
1\
0[
1Z
1X
1U
16
1`
1]
0\
1[
0Z
0X
0V
0U
07
06
0[
1Z
1Y
0W
1V
1U
1T
0S
17
16
15
04
0]
0Z
0Y
0V
0T
07
05
0`
0_
1^
1\
1W
0U
1S
1R
1Q
06
14
13
12
1]
0\
1Y
0W
1U
1T
0R
0Q
16
15
03
02
1[
1Z
1W
1V
0U
1R
17
06
13
0^
0]
1X
0W
1U
0T
0S
0R
1Q
16
05
04
03
12
1`
0Z
0X
0V
0U
07
06
#780
0-
#790
1-
1*
1)
0(
1'
0#
0!
08
1L
0I
1E
1C
1B
1A
1@
1?
1>
1=
1<
1;
1:
19
1\
1Z
1X
18
0`
1^
1]
0[
0X
1W
1U
1T
1S
1R
0Q
16
15
14
13
02
1`
1_
0^
0\
0Z
0Y
1X
0W
1V
17
1Z
0X
0V
07
1^
1[
0Z
1Y
1W
1V
0T
0S
0R
0P
0O
0N
0M
17
05
04
03
01
00
0/
0.
0_
1\
0[
1Z
0W
0V
1T
1P
1O
1N
1M
07
15
11
10
1/
1.
0^
0]
0\
1X
0T
1S
0P
0O
0N
0M
05
14
01
00
0/
0.
0Y
0U
1T
1R
1Q
1P
1O
1N
1M
06
15
13
12
11
10
1/
1.
0`
1_
1^
1]
1[
0Z
1Y
1V
0S
17
04
1`
0_
1\
0[
1Z
0Y
1W
1U
16
#800
0-
#810
1-
0)
0'
0$
1#
0"
08
1K
1I
1F
0E
1D
0`
1_
0^
0X
18
1`
1^
0]
0\
0Z
1Y
1X
0_
1\
1[
1Z
0Y
0W
0V
0U
0T
1S
07
06
05
14
0[
1Y
1W
0S
0R
0Q
0P
0O
0N
0M
04
03
02
01
00
0/
0.
1]
0\
0Y
0X
1U
1T
1R
1P
1O
1N
1M
16
15
13
11
10
1/
1.
0`
1_
1\
1[
1Y
1X
0W
1V
0U
0T
1S
1Q
0P
0O
0N
0M
17
06
05
14
12
01
00
0/
0.
0\
0[
0X
1W
1U
1P
1O
1N
1M
16
11
10
1/
1.
1[
0Z
0V
0U
1T
0R
0Q
0P
0O
0N
0M
07
06
15
03
02
01
00
0/
0.
0_
0^
0]
0[
1X
1V
0T
0S
1R
17
05
04
13
1`
1]
1\
0W
1U
1T
1S
0R
16
15
14
03
#820
0-
#830
1-
1)
1%
1$
08
0K
0G
0F
0`
1^
0]
0\
1Z
18
1_
1]
0X
1W
1`
0]
1\
0W
0V
0U
07
06
0Z
0Y
1W
1U
0T
0S
16
05
04
0^
1]
1[
1Z
1Y
1T
1P
15
11
1^
0\
0[
0Z
0W
1V
0U
1S
1Q
1O
1N
1M
17
06
14
12
10
1/
1.
0^
0]
1X
1U
0S
1R
0P
0O
0N
0M
16
04
13
01
00
0/
0.
1Z
0Y
0X
1W
0V
0T
1S
0R
07
05
14
03
0`
0_
1]
1[
1V
0U
1T
0S
17
06
15
04
1^
0[
0Z
1Y
1X
0V
1U
07
16
#840
0-
#850
1-
0)
1(
1'
0&
0%
0#
1"
08
1K
0J
0I
1H
1G
1E
0D
1_
0^
0]
1\
1[
18
1`
0_
1^
1]
0\
0Y
0X
0W
1V
0U
17
06
1_
0^
1Z
1Y
1X
1W
0V
0T
1S
07
05
14
0[
0Y
0X
1R
13
1\
0Z
1X
1U
1P
1O
1N
1M
16
11
10
1/
1.
0`
0_
0]
1[
1Y
0W
1T
0S
0R
0O
0N
0M
15
04
03
00
0/
0.
1]
1Z
0Y
1S
0P
14
01
0[
0X
1W
0T
1R
05
13
1_
0Z
1Y
0W
1V
0U
1T
17
06
15
0]
1X
0V
07
#860
0-
#870
1-
0(
1%
0"
08
1J
0G
1D
1`
1^
1]
1[
1Z
0Y
0X
18
0_
0^
1Y
1U
16
0`
1_
0]
0\
0Z
1X
1W
1V
0S
17
04
0Y
0U
0T
1S
0R
06
05
14
03
1^
1\
0[
0X
0W
0V
1T
0S
1R
1P
07
15
04
13
11
0_
0^
1]
1[
1Z
1Y
1W
1U
0T
0R
0P
16
05
03
01
1^
0\
0[
0W
0U
1S
1R
0Q
1P
06
14
13
02
11
0Z
1X
1W
1V
0S
17
04
1_
0^
0]
1\
0X
0V
07
0_
0\
0Y
1X
0W
#880
0-
